%!PS-Adobe-2.0
%%Title: www.uq.edu.au_scatter.ps
%%Creator: gnuplot 4.6 patchlevel 6
%%CreationDate: Sun Jun 23 21:33:48 2019
%%DocumentFonts: (atend)
%%BoundingBox: 50 50 554 770
%%Orientation: Landscape
%%Pages: (atend)
%%EndComments
%%BeginProlog
/gnudict 256 dict def
gnudict begin
%
% The following true/false flags may be edited by hand if desired.
% The unit line width and grayscale image gamma correction may also be changed.
%
/Color true def
/Blacktext false def
/Solid false def
/Dashlength 1 def
/Landscape true def
/Level1 false def
/Rounded false def
/ClipToBoundingBox false def
/SuppressPDFMark false def
/TransparentPatterns false def
/gnulinewidth 5.000 def
/userlinewidth gnulinewidth def
/Gamma 1.0 def
/BackgroundColor {-1.000 -1.000 -1.000} def
%
/vshift -46 def
/dl1 {
  10.0 Dashlength mul mul
  Rounded { currentlinewidth 0.75 mul sub dup 0 le { pop 0.01 } if } if
} def
/dl2 {
  10.0 Dashlength mul mul
  Rounded { currentlinewidth 0.75 mul add } if
} def
/hpt_ 31.5 def
/vpt_ 31.5 def
/hpt hpt_ def
/vpt vpt_ def
/doclip {
  ClipToBoundingBox {
    newpath 50 50 moveto 554 50 lineto 554 770 lineto 50 770 lineto closepath
    clip
  } if
} def
%
% Gnuplot Prolog Version 4.6 (September 2012)
%
%/SuppressPDFMark true def
%
/M {moveto} bind def
/L {lineto} bind def
/R {rmoveto} bind def
/V {rlineto} bind def
/N {newpath moveto} bind def
/Z {closepath} bind def
/C {setrgbcolor} bind def
/f {rlineto fill} bind def
/g {setgray} bind def
/Gshow {show} def   % May be redefined later in the file to support UTF-8
/vpt2 vpt 2 mul def
/hpt2 hpt 2 mul def
/Lshow {currentpoint stroke M 0 vshift R 
	Blacktext {gsave 0 setgray show grestore} {show} ifelse} def
/Rshow {currentpoint stroke M dup stringwidth pop neg vshift R
	Blacktext {gsave 0 setgray show grestore} {show} ifelse} def
/Cshow {currentpoint stroke M dup stringwidth pop -2 div vshift R 
	Blacktext {gsave 0 setgray show grestore} {show} ifelse} def
/UP {dup vpt_ mul /vpt exch def hpt_ mul /hpt exch def
  /hpt2 hpt 2 mul def /vpt2 vpt 2 mul def} def
/DL {Color {setrgbcolor Solid {pop []} if 0 setdash}
 {pop pop pop 0 setgray Solid {pop []} if 0 setdash} ifelse} def
/BL {stroke userlinewidth 2 mul setlinewidth
	Rounded {1 setlinejoin 1 setlinecap} if} def
/AL {stroke userlinewidth 2 div setlinewidth
	Rounded {1 setlinejoin 1 setlinecap} if} def
/UL {dup gnulinewidth mul /userlinewidth exch def
	dup 1 lt {pop 1} if 10 mul /udl exch def} def
/PL {stroke userlinewidth setlinewidth
	Rounded {1 setlinejoin 1 setlinecap} if} def
3.8 setmiterlimit
% Default Line colors
/LCw {1 1 1} def
/LCb {0 0 0} def
/LCa {0 0 0} def
/LC0 {1 0 0} def
/LC1 {0 1 0} def
/LC2 {0 0 1} def
/LC3 {1 0 1} def
/LC4 {0 1 1} def
/LC5 {1 1 0} def
/LC6 {0 0 0} def
/LC7 {1 0.3 0} def
/LC8 {0.5 0.5 0.5} def
% Default Line Types
/LTw {PL [] 1 setgray} def
/LTb {BL [] LCb DL} def
/LTa {AL [1 udl mul 2 udl mul] 0 setdash LCa setrgbcolor} def
/LT0 {PL [] LC0 DL} def
/LT1 {PL [4 dl1 2 dl2] LC1 DL} def
/LT2 {PL [2 dl1 3 dl2] LC2 DL} def
/LT3 {PL [1 dl1 1.5 dl2] LC3 DL} def
/LT4 {PL [6 dl1 2 dl2 1 dl1 2 dl2] LC4 DL} def
/LT5 {PL [3 dl1 3 dl2 1 dl1 3 dl2] LC5 DL} def
/LT6 {PL [2 dl1 2 dl2 2 dl1 6 dl2] LC6 DL} def
/LT7 {PL [1 dl1 2 dl2 6 dl1 2 dl2 1 dl1 2 dl2] LC7 DL} def
/LT8 {PL [2 dl1 2 dl2 2 dl1 2 dl2 2 dl1 2 dl2 2 dl1 4 dl2] LC8 DL} def
/Pnt {stroke [] 0 setdash gsave 1 setlinecap M 0 0 V stroke grestore} def
/Dia {stroke [] 0 setdash 2 copy vpt add M
  hpt neg vpt neg V hpt vpt neg V
  hpt vpt V hpt neg vpt V closepath stroke
  Pnt} def
/Pls {stroke [] 0 setdash vpt sub M 0 vpt2 V
  currentpoint stroke M
  hpt neg vpt neg R hpt2 0 V stroke
 } def
/Box {stroke [] 0 setdash 2 copy exch hpt sub exch vpt add M
  0 vpt2 neg V hpt2 0 V 0 vpt2 V
  hpt2 neg 0 V closepath stroke
  Pnt} def
/Crs {stroke [] 0 setdash exch hpt sub exch vpt add M
  hpt2 vpt2 neg V currentpoint stroke M
  hpt2 neg 0 R hpt2 vpt2 V stroke} def
/TriU {stroke [] 0 setdash 2 copy vpt 1.12 mul add M
  hpt neg vpt -1.62 mul V
  hpt 2 mul 0 V
  hpt neg vpt 1.62 mul V closepath stroke
  Pnt} def
/Star {2 copy Pls Crs} def
/BoxF {stroke [] 0 setdash exch hpt sub exch vpt add M
  0 vpt2 neg V hpt2 0 V 0 vpt2 V
  hpt2 neg 0 V closepath fill} def
/TriUF {stroke [] 0 setdash vpt 1.12 mul add M
  hpt neg vpt -1.62 mul V
  hpt 2 mul 0 V
  hpt neg vpt 1.62 mul V closepath fill} def
/TriD {stroke [] 0 setdash 2 copy vpt 1.12 mul sub M
  hpt neg vpt 1.62 mul V
  hpt 2 mul 0 V
  hpt neg vpt -1.62 mul V closepath stroke
  Pnt} def
/TriDF {stroke [] 0 setdash vpt 1.12 mul sub M
  hpt neg vpt 1.62 mul V
  hpt 2 mul 0 V
  hpt neg vpt -1.62 mul V closepath fill} def
/DiaF {stroke [] 0 setdash vpt add M
  hpt neg vpt neg V hpt vpt neg V
  hpt vpt V hpt neg vpt V closepath fill} def
/Pent {stroke [] 0 setdash 2 copy gsave
  translate 0 hpt M 4 {72 rotate 0 hpt L} repeat
  closepath stroke grestore Pnt} def
/PentF {stroke [] 0 setdash gsave
  translate 0 hpt M 4 {72 rotate 0 hpt L} repeat
  closepath fill grestore} def
/Circle {stroke [] 0 setdash 2 copy
  hpt 0 360 arc stroke Pnt} def
/CircleF {stroke [] 0 setdash hpt 0 360 arc fill} def
/C0 {BL [] 0 setdash 2 copy moveto vpt 90 450 arc} bind def
/C1 {BL [] 0 setdash 2 copy moveto
	2 copy vpt 0 90 arc closepath fill
	vpt 0 360 arc closepath} bind def
/C2 {BL [] 0 setdash 2 copy moveto
	2 copy vpt 90 180 arc closepath fill
	vpt 0 360 arc closepath} bind def
/C3 {BL [] 0 setdash 2 copy moveto
	2 copy vpt 0 180 arc closepath fill
	vpt 0 360 arc closepath} bind def
/C4 {BL [] 0 setdash 2 copy moveto
	2 copy vpt 180 270 arc closepath fill
	vpt 0 360 arc closepath} bind def
/C5 {BL [] 0 setdash 2 copy moveto
	2 copy vpt 0 90 arc
	2 copy moveto
	2 copy vpt 180 270 arc closepath fill
	vpt 0 360 arc} bind def
/C6 {BL [] 0 setdash 2 copy moveto
	2 copy vpt 90 270 arc closepath fill
	vpt 0 360 arc closepath} bind def
/C7 {BL [] 0 setdash 2 copy moveto
	2 copy vpt 0 270 arc closepath fill
	vpt 0 360 arc closepath} bind def
/C8 {BL [] 0 setdash 2 copy moveto
	2 copy vpt 270 360 arc closepath fill
	vpt 0 360 arc closepath} bind def
/C9 {BL [] 0 setdash 2 copy moveto
	2 copy vpt 270 450 arc closepath fill
	vpt 0 360 arc closepath} bind def
/C10 {BL [] 0 setdash 2 copy 2 copy moveto vpt 270 360 arc closepath fill
	2 copy moveto
	2 copy vpt 90 180 arc closepath fill
	vpt 0 360 arc closepath} bind def
/C11 {BL [] 0 setdash 2 copy moveto
	2 copy vpt 0 180 arc closepath fill
	2 copy moveto
	2 copy vpt 270 360 arc closepath fill
	vpt 0 360 arc closepath} bind def
/C12 {BL [] 0 setdash 2 copy moveto
	2 copy vpt 180 360 arc closepath fill
	vpt 0 360 arc closepath} bind def
/C13 {BL [] 0 setdash 2 copy moveto
	2 copy vpt 0 90 arc closepath fill
	2 copy moveto
	2 copy vpt 180 360 arc closepath fill
	vpt 0 360 arc closepath} bind def
/C14 {BL [] 0 setdash 2 copy moveto
	2 copy vpt 90 360 arc closepath fill
	vpt 0 360 arc} bind def
/C15 {BL [] 0 setdash 2 copy vpt 0 360 arc closepath fill
	vpt 0 360 arc closepath} bind def
/Rec {newpath 4 2 roll moveto 1 index 0 rlineto 0 exch rlineto
	neg 0 rlineto closepath} bind def
/Square {dup Rec} bind def
/Bsquare {vpt sub exch vpt sub exch vpt2 Square} bind def
/S0 {BL [] 0 setdash 2 copy moveto 0 vpt rlineto BL Bsquare} bind def
/S1 {BL [] 0 setdash 2 copy vpt Square fill Bsquare} bind def
/S2 {BL [] 0 setdash 2 copy exch vpt sub exch vpt Square fill Bsquare} bind def
/S3 {BL [] 0 setdash 2 copy exch vpt sub exch vpt2 vpt Rec fill Bsquare} bind def
/S4 {BL [] 0 setdash 2 copy exch vpt sub exch vpt sub vpt Square fill Bsquare} bind def
/S5 {BL [] 0 setdash 2 copy 2 copy vpt Square fill
	exch vpt sub exch vpt sub vpt Square fill Bsquare} bind def
/S6 {BL [] 0 setdash 2 copy exch vpt sub exch vpt sub vpt vpt2 Rec fill Bsquare} bind def
/S7 {BL [] 0 setdash 2 copy exch vpt sub exch vpt sub vpt vpt2 Rec fill
	2 copy vpt Square fill Bsquare} bind def
/S8 {BL [] 0 setdash 2 copy vpt sub vpt Square fill Bsquare} bind def
/S9 {BL [] 0 setdash 2 copy vpt sub vpt vpt2 Rec fill Bsquare} bind def
/S10 {BL [] 0 setdash 2 copy vpt sub vpt Square fill 2 copy exch vpt sub exch vpt Square fill
	Bsquare} bind def
/S11 {BL [] 0 setdash 2 copy vpt sub vpt Square fill 2 copy exch vpt sub exch vpt2 vpt Rec fill
	Bsquare} bind def
/S12 {BL [] 0 setdash 2 copy exch vpt sub exch vpt sub vpt2 vpt Rec fill Bsquare} bind def
/S13 {BL [] 0 setdash 2 copy exch vpt sub exch vpt sub vpt2 vpt Rec fill
	2 copy vpt Square fill Bsquare} bind def
/S14 {BL [] 0 setdash 2 copy exch vpt sub exch vpt sub vpt2 vpt Rec fill
	2 copy exch vpt sub exch vpt Square fill Bsquare} bind def
/S15 {BL [] 0 setdash 2 copy Bsquare fill Bsquare} bind def
/D0 {gsave translate 45 rotate 0 0 S0 stroke grestore} bind def
/D1 {gsave translate 45 rotate 0 0 S1 stroke grestore} bind def
/D2 {gsave translate 45 rotate 0 0 S2 stroke grestore} bind def
/D3 {gsave translate 45 rotate 0 0 S3 stroke grestore} bind def
/D4 {gsave translate 45 rotate 0 0 S4 stroke grestore} bind def
/D5 {gsave translate 45 rotate 0 0 S5 stroke grestore} bind def
/D6 {gsave translate 45 rotate 0 0 S6 stroke grestore} bind def
/D7 {gsave translate 45 rotate 0 0 S7 stroke grestore} bind def
/D8 {gsave translate 45 rotate 0 0 S8 stroke grestore} bind def
/D9 {gsave translate 45 rotate 0 0 S9 stroke grestore} bind def
/D10 {gsave translate 45 rotate 0 0 S10 stroke grestore} bind def
/D11 {gsave translate 45 rotate 0 0 S11 stroke grestore} bind def
/D12 {gsave translate 45 rotate 0 0 S12 stroke grestore} bind def
/D13 {gsave translate 45 rotate 0 0 S13 stroke grestore} bind def
/D14 {gsave translate 45 rotate 0 0 S14 stroke grestore} bind def
/D15 {gsave translate 45 rotate 0 0 S15 stroke grestore} bind def
/DiaE {stroke [] 0 setdash vpt add M
  hpt neg vpt neg V hpt vpt neg V
  hpt vpt V hpt neg vpt V closepath stroke} def
/BoxE {stroke [] 0 setdash exch hpt sub exch vpt add M
  0 vpt2 neg V hpt2 0 V 0 vpt2 V
  hpt2 neg 0 V closepath stroke} def
/TriUE {stroke [] 0 setdash vpt 1.12 mul add M
  hpt neg vpt -1.62 mul V
  hpt 2 mul 0 V
  hpt neg vpt 1.62 mul V closepath stroke} def
/TriDE {stroke [] 0 setdash vpt 1.12 mul sub M
  hpt neg vpt 1.62 mul V
  hpt 2 mul 0 V
  hpt neg vpt -1.62 mul V closepath stroke} def
/PentE {stroke [] 0 setdash gsave
  translate 0 hpt M 4 {72 rotate 0 hpt L} repeat
  closepath stroke grestore} def
/CircE {stroke [] 0 setdash 
  hpt 0 360 arc stroke} def
/Opaque {gsave closepath 1 setgray fill grestore 0 setgray closepath} def
/DiaW {stroke [] 0 setdash vpt add M
  hpt neg vpt neg V hpt vpt neg V
  hpt vpt V hpt neg vpt V Opaque stroke} def
/BoxW {stroke [] 0 setdash exch hpt sub exch vpt add M
  0 vpt2 neg V hpt2 0 V 0 vpt2 V
  hpt2 neg 0 V Opaque stroke} def
/TriUW {stroke [] 0 setdash vpt 1.12 mul add M
  hpt neg vpt -1.62 mul V
  hpt 2 mul 0 V
  hpt neg vpt 1.62 mul V Opaque stroke} def
/TriDW {stroke [] 0 setdash vpt 1.12 mul sub M
  hpt neg vpt 1.62 mul V
  hpt 2 mul 0 V
  hpt neg vpt -1.62 mul V Opaque stroke} def
/PentW {stroke [] 0 setdash gsave
  translate 0 hpt M 4 {72 rotate 0 hpt L} repeat
  Opaque stroke grestore} def
/CircW {stroke [] 0 setdash 
  hpt 0 360 arc Opaque stroke} def
/BoxFill {gsave Rec 1 setgray fill grestore} def
/Density {
  /Fillden exch def
  currentrgbcolor
  /ColB exch def /ColG exch def /ColR exch def
  /ColR ColR Fillden mul Fillden sub 1 add def
  /ColG ColG Fillden mul Fillden sub 1 add def
  /ColB ColB Fillden mul Fillden sub 1 add def
  ColR ColG ColB setrgbcolor} def
/BoxColFill {gsave Rec PolyFill} def
/PolyFill {gsave Density fill grestore grestore} def
/h {rlineto rlineto rlineto gsave closepath fill grestore} bind def
%
% PostScript Level 1 Pattern Fill routine for rectangles
% Usage: x y w h s a XX PatternFill
%	x,y = lower left corner of box to be filled
%	w,h = width and height of box
%	  a = angle in degrees between lines and x-axis
%	 XX = 0/1 for no/yes cross-hatch
%
/PatternFill {gsave /PFa [ 9 2 roll ] def
  PFa 0 get PFa 2 get 2 div add PFa 1 get PFa 3 get 2 div add translate
  PFa 2 get -2 div PFa 3 get -2 div PFa 2 get PFa 3 get Rec
  TransparentPatterns {} {gsave 1 setgray fill grestore} ifelse
  clip
  currentlinewidth 0.5 mul setlinewidth
  /PFs PFa 2 get dup mul PFa 3 get dup mul add sqrt def
  0 0 M PFa 5 get rotate PFs -2 div dup translate
  0 1 PFs PFa 4 get div 1 add floor cvi
	{PFa 4 get mul 0 M 0 PFs V} for
  0 PFa 6 get ne {
	0 1 PFs PFa 4 get div 1 add floor cvi
	{PFa 4 get mul 0 2 1 roll M PFs 0 V} for
 } if
  stroke grestore} def
%
/languagelevel where
 {pop languagelevel} {1} ifelse
 2 lt
	{/InterpretLevel1 true def}
	{/InterpretLevel1 Level1 def}
 ifelse
%
% PostScript level 2 pattern fill definitions
%
/Level2PatternFill {
/Tile8x8 {/PaintType 2 /PatternType 1 /TilingType 1 /BBox [0 0 8 8] /XStep 8 /YStep 8}
	bind def
/KeepColor {currentrgbcolor [/Pattern /DeviceRGB] setcolorspace} bind def
<< Tile8x8
 /PaintProc {0.5 setlinewidth pop 0 0 M 8 8 L 0 8 M 8 0 L stroke} 
>> matrix makepattern
/Pat1 exch def
<< Tile8x8
 /PaintProc {0.5 setlinewidth pop 0 0 M 8 8 L 0 8 M 8 0 L stroke
	0 4 M 4 8 L 8 4 L 4 0 L 0 4 L stroke}
>> matrix makepattern
/Pat2 exch def
<< Tile8x8
 /PaintProc {0.5 setlinewidth pop 0 0 M 0 8 L
	8 8 L 8 0 L 0 0 L fill}
>> matrix makepattern
/Pat3 exch def
<< Tile8x8
 /PaintProc {0.5 setlinewidth pop -4 8 M 8 -4 L
	0 12 M 12 0 L stroke}
>> matrix makepattern
/Pat4 exch def
<< Tile8x8
 /PaintProc {0.5 setlinewidth pop -4 0 M 8 12 L
	0 -4 M 12 8 L stroke}
>> matrix makepattern
/Pat5 exch def
<< Tile8x8
 /PaintProc {0.5 setlinewidth pop -2 8 M 4 -4 L
	0 12 M 8 -4 L 4 12 M 10 0 L stroke}
>> matrix makepattern
/Pat6 exch def
<< Tile8x8
 /PaintProc {0.5 setlinewidth pop -2 0 M 4 12 L
	0 -4 M 8 12 L 4 -4 M 10 8 L stroke}
>> matrix makepattern
/Pat7 exch def
<< Tile8x8
 /PaintProc {0.5 setlinewidth pop 8 -2 M -4 4 L
	12 0 M -4 8 L 12 4 M 0 10 L stroke}
>> matrix makepattern
/Pat8 exch def
<< Tile8x8
 /PaintProc {0.5 setlinewidth pop 0 -2 M 12 4 L
	-4 0 M 12 8 L -4 4 M 8 10 L stroke}
>> matrix makepattern
/Pat9 exch def
/Pattern1 {PatternBgnd KeepColor Pat1 setpattern} bind def
/Pattern2 {PatternBgnd KeepColor Pat2 setpattern} bind def
/Pattern3 {PatternBgnd KeepColor Pat3 setpattern} bind def
/Pattern4 {PatternBgnd KeepColor Landscape {Pat5} {Pat4} ifelse setpattern} bind def
/Pattern5 {PatternBgnd KeepColor Landscape {Pat4} {Pat5} ifelse setpattern} bind def
/Pattern6 {PatternBgnd KeepColor Landscape {Pat9} {Pat6} ifelse setpattern} bind def
/Pattern7 {PatternBgnd KeepColor Landscape {Pat8} {Pat7} ifelse setpattern} bind def
} def
%
%
%End of PostScript Level 2 code
%
/PatternBgnd {
  TransparentPatterns {} {gsave 1 setgray fill grestore} ifelse
} def
%
% Substitute for Level 2 pattern fill codes with
% grayscale if Level 2 support is not selected.
%
/Level1PatternFill {
/Pattern1 {0.250 Density} bind def
/Pattern2 {0.500 Density} bind def
/Pattern3 {0.750 Density} bind def
/Pattern4 {0.125 Density} bind def
/Pattern5 {0.375 Density} bind def
/Pattern6 {0.625 Density} bind def
/Pattern7 {0.875 Density} bind def
} def
%
% Now test for support of Level 2 code
%
Level1 {Level1PatternFill} {Level2PatternFill} ifelse
%
/Symbol-Oblique /Symbol findfont [1 0 .167 1 0 0] makefont
dup length dict begin {1 index /FID eq {pop pop} {def} ifelse} forall
currentdict end definefont pop
Level1 SuppressPDFMark or 
{} {
/SDict 10 dict def
systemdict /pdfmark known not {
  userdict /pdfmark systemdict /cleartomark get put
} if
SDict begin [
  /Title (www.uq.edu.au_scatter.ps)
  /Subject (gnuplot plot)
  /Creator (gnuplot 4.6 patchlevel 6)
  /Author (z5155332)
%  /Producer (gnuplot)
%  /Keywords ()
  /CreationDate (Sun Jun 23 21:33:48 2019)
  /DOCINFO pdfmark
end
} ifelse
end
%%EndProlog
%%Page: 1 1
gnudict begin
gsave
doclip
50 50 translate
0.100 0.100 scale
90 rotate
0 -5040 translate
0 setgray
newpath
(Helvetica) findfont 140 scalefont setfont
BackgroundColor 0 lt 3 1 roll 0 lt exch 0 lt or or not {gsave BackgroundColor C clippath fill grestore} if
1.000 UL
LTb
LCb setrgbcolor
602 588 M
63 0 V
6282 0 R
-63 0 V
518 588 M
( 10) Rshow
1.000 UL
LTb
LCb setrgbcolor
602 1200 M
63 0 V
6282 0 R
-63 0 V
-6366 0 R
( 20) Rshow
1.000 UL
LTb
LCb setrgbcolor
602 1812 M
63 0 V
6282 0 R
-63 0 V
-6366 0 R
( 30) Rshow
1.000 UL
LTb
LCb setrgbcolor
602 2424 M
63 0 V
6282 0 R
-63 0 V
-6366 0 R
( 40) Rshow
1.000 UL
LTb
LCb setrgbcolor
602 3035 M
63 0 V
6282 0 R
-63 0 V
-6366 0 R
( 50) Rshow
1.000 UL
LTb
LCb setrgbcolor
602 3647 M
63 0 V
6282 0 R
-63 0 V
-6366 0 R
( 60) Rshow
1.000 UL
LTb
LCb setrgbcolor
602 4259 M
63 0 V
6282 0 R
-63 0 V
-6366 0 R
( 70) Rshow
1.000 UL
LTb
LCb setrgbcolor
602 4871 M
63 0 V
6282 0 R
-63 0 V
-6366 0 R
( 80) Rshow
1.000 UL
LTb
LCb setrgbcolor
602 588 M
0 63 V
0 4220 R
0 -63 V
602 448 M
( 0) Cshow
1.000 UL
LTb
LCb setrgbcolor
1395 588 M
0 63 V
0 4220 R
0 -63 V
0 -4360 R
( 200) Cshow
1.000 UL
LTb
LCb setrgbcolor
2188 588 M
0 63 V
0 4220 R
0 -63 V
0 -4360 R
( 400) Cshow
1.000 UL
LTb
LCb setrgbcolor
2981 588 M
0 63 V
0 4220 R
0 -63 V
0 -4360 R
( 600) Cshow
1.000 UL
LTb
LCb setrgbcolor
3775 588 M
0 63 V
0 4220 R
0 -63 V
0 -4360 R
( 800) Cshow
1.000 UL
LTb
LCb setrgbcolor
4568 588 M
0 63 V
0 4220 R
0 -63 V
0 -4360 R
( 1000) Cshow
1.000 UL
LTb
LCb setrgbcolor
5361 588 M
0 63 V
0 4220 R
0 -63 V
0 -4360 R
( 1200) Cshow
1.000 UL
LTb
LCb setrgbcolor
6154 588 M
0 63 V
0 4220 R
0 -63 V
0 -4360 R
( 1400) Cshow
1.000 UL
LTb
LCb setrgbcolor
6947 588 M
0 63 V
0 4220 R
0 -63 V
0 -4360 R
( 1600) Cshow
1.000 UL
LTb
LCb setrgbcolor
1.000 UL
LTb
LCb setrgbcolor
602 4871 N
602 588 L
6345 0 V
0 4283 V
-6345 0 V
Z stroke
LCb setrgbcolor
112 2729 M
currentpoint gsave translate -270 rotate 0 0 M
(Delay \(ms\)) Cshow
grestore
LTb
LCb setrgbcolor
3774 238 M
(Packet Size \(bytes\)) Cshow
LTb
182 70 M
(Sun Jun 23 21:33:48 2019) Lshow
1.000 UP
1.000 UL
LTb
LCb setrgbcolor
% Begin plot #1
1.000 UP
1.000 UL
LT0
LC0 setrgbcolor
4488 1029 Pls
4488 1029 Pls
4488 1041 Pls
4488 1029 Pls
4488 1022 Pls
4488 1022 Pls
4488 1035 Pls
4488 1029 Pls
4488 1029 Pls
4488 1029 Pls
4488 1096 Pls
4488 1022 Pls
4488 1035 Pls
4488 1029 Pls
4488 1029 Pls
4488 1022 Pls
4488 1035 Pls
4488 1029 Pls
4488 1029 Pls
4488 1041 Pls
4488 1022 Pls
4488 1041 Pls
4488 1347 Pls
4488 1029 Pls
4488 1022 Pls
4488 1029 Pls
4488 1029 Pls
4488 1029 Pls
4488 1084 Pls
4488 1084 Pls
4488 1029 Pls
4488 1022 Pls
4488 1029 Pls
4488 1035 Pls
4488 1029 Pls
4488 1029 Pls
4488 1029 Pls
4488 1047 Pls
4488 1035 Pls
4488 1041 Pls
4488 1035 Pls
4488 1029 Pls
4488 1041 Pls
4488 1022 Pls
4488 1022 Pls
4488 1029 Pls
4488 1035 Pls
4488 1047 Pls
4488 1029 Pls
4488 2173 Pls
% End plot #1
% Begin plot #2
1.000 UP
1.000 UL
LT1
LC1 setrgbcolor
5480 1041 Crs
5480 2772 Crs
5480 1029 Crs
5480 1065 Crs
5480 1029 Crs
5480 1029 Crs
5480 1035 Crs
5480 1035 Crs
5480 1047 Crs
5480 1035 Crs
5480 1035 Crs
5480 1029 Crs
5480 1041 Crs
5480 1035 Crs
5480 1041 Crs
5480 1035 Crs
5480 1029 Crs
5480 1059 Crs
5480 1029 Crs
5480 1041 Crs
5480 1035 Crs
5480 1035 Crs
5480 1029 Crs
5480 1029 Crs
5480 1029 Crs
5480 1041 Crs
5480 1029 Crs
5480 1035 Crs
5480 2687 Crs
5480 1029 Crs
5480 1035 Crs
5480 1041 Crs
5480 1035 Crs
5480 1041 Crs
5480 1041 Crs
5480 1047 Crs
5480 1035 Crs
5480 1041 Crs
5480 1041 Crs
5480 1077 Crs
5480 1041 Crs
5480 1035 Crs
5480 1029 Crs
5480 1029 Crs
5480 1035 Crs
5480 1022 Crs
5480 1035 Crs
5480 1029 Crs
5480 1029 Crs
5480 1029 Crs
% End plot #2
% Begin plot #3
1.000 UP
1.000 UL
LT2
LC2 setrgbcolor
6471 1047 Star
6471 1041 Star
6471 1047 Star
6471 1053 Star
6471 1041 Star
6471 1059 Star
6471 1341 Star
6471 2026 Star
6471 1041 Star
6471 1065 Star
6471 1047 Star
6471 1053 Star
6471 1053 Star
6471 1047 Star
6471 1041 Star
6471 1041 Star
6471 1035 Star
6471 1035 Star
6471 1041 Star
6471 1047 Star
6471 1096 Star
6471 1041 Star
6471 1047 Star
6471 1035 Star
6471 1041 Star
6471 1065 Star
6471 1035 Star
6471 1047 Star
6471 1041 Star
6471 1047 Star
6471 1077 Star
6471 1047 Star
6471 2167 Star
6471 1047 Star
6471 1047 Star
6471 1047 Star
6471 1041 Star
6471 1065 Star
6471 1047 Star
6471 1053 Star
6471 1047 Star
6471 1053 Star
6471 1041 Star
6471 1053 Star
6471 1047 Star
6471 1114 Star
6471 1286 Star
6471 1279 Star
6471 1126 Star
6471 1047 Star
% End plot #3
% Begin plot #4
1.000 UP
1.000 UL
LT3
LC3 setrgbcolor
1514 1010 Box
1514 998 Box
1514 1004 Box
1514 1004 Box
1514 1004 Box
1514 1004 Box
1514 998 Box
1514 998 Box
1514 998 Box
1514 1004 Box
1514 1004 Box
1514 1891 Box
1514 1004 Box
1514 1010 Box
1514 1004 Box
1514 1004 Box
1514 1004 Box
1514 1004 Box
1514 998 Box
1514 1004 Box
1514 1004 Box
1514 1004 Box
1514 1010 Box
1514 1022 Box
1514 1120 Box
1514 1010 Box
1514 1010 Box
1514 1022 Box
1514 1010 Box
1514 1010 Box
1514 1010 Box
1514 1010 Box
1514 1224 Box
1514 1004 Box
1514 998 Box
1514 1010 Box
1514 998 Box
1514 1004 Box
1514 1714 Box
1514 1022 Box
1514 1010 Box
1514 1022 Box
1514 1010 Box
1514 998 Box
1514 1004 Box
1514 1029 Box
1514 1004 Box
1514 1004 Box
1514 1022 Box
1514 998 Box
% End plot #4
% Begin plot #5
1.000 UP
1.000 UL
LT4
LC4 setrgbcolor
721 1004 BoxF
721 1004 BoxF
721 1010 BoxF
721 1022 BoxF
721 1016 BoxF
721 992 BoxF
721 1390 BoxF
721 3782 BoxF
721 992 BoxF
721 1004 BoxF
721 998 BoxF
721 992 BoxF
721 1004 BoxF
721 992 BoxF
721 998 BoxF
721 998 BoxF
721 1004 BoxF
721 1004 BoxF
721 992 BoxF
721 998 BoxF
721 1010 BoxF
721 992 BoxF
721 998 BoxF
721 992 BoxF
721 1365 BoxF
721 992 BoxF
721 998 BoxF
721 1004 BoxF
721 992 BoxF
721 992 BoxF
721 998 BoxF
721 992 BoxF
721 992 BoxF
721 1029 BoxF
721 3280 BoxF
721 998 BoxF
721 998 BoxF
721 1004 BoxF
721 1004 BoxF
721 1010 BoxF
721 1010 BoxF
721 1010 BoxF
721 998 BoxF
721 992 BoxF
721 992 BoxF
721 998 BoxF
721 992 BoxF
721 992 BoxF
721 998 BoxF
721 998 BoxF
% End plot #5
% Begin plot #6
1.000 UP
1.000 UL
LT5
LC5 setrgbcolor
2506 1029 Circle
2506 1022 Circle
2506 1016 Circle
2506 1010 Circle
2506 1016 Circle
2506 1016 Circle
2506 1010 Circle
2506 1010 Circle
2506 1010 Circle
2506 1016 Circle
2506 1010 Circle
2506 1016 Circle
2506 1010 Circle
2506 1016 Circle
2506 1604 Circle
2506 1475 Circle
2506 3935 Circle
2506 1016 Circle
2506 1041 Circle
2506 1041 Circle
2506 1047 Circle
2506 1059 Circle
2506 1041 Circle
2506 1029 Circle
2506 1022 Circle
2506 1016 Circle
2506 1022 Circle
2506 1016 Circle
2506 1029 Circle
2506 1010 Circle
2506 1016 Circle
2506 1010 Circle
2506 1016 Circle
2506 1029 Circle
2506 1010 Circle
2506 1004 Circle
2506 1010 Circle
2506 1016 Circle
2506 1041 Circle
2506 1016 Circle
2506 1029 Circle
2506 2460 Circle
2506 1065 Circle
2506 1035 Circle
2506 1022 Circle
2506 1022 Circle
2506 1016 Circle
2506 1016 Circle
2506 1077 Circle
2506 1016 Circle
% End plot #6
% Begin plot #7
1.000 UP
1.000 UL
LT6
LC6 setrgbcolor
3497 1022 CircleF
3497 1022 CircleF
3497 1022 CircleF
3497 1029 CircleF
3497 1041 CircleF
3497 1029 CircleF
3497 1029 CircleF
3497 1022 CircleF
3497 1022 CircleF
3497 1053 CircleF
3497 1035 CircleF
3497 1029 CircleF
3497 1029 CircleF
3497 1022 CircleF
3497 1016 CircleF
3497 1016 CircleF
3497 1029 CircleF
3497 1029 CircleF
3497 1536 CircleF
3497 4590 CircleF
3497 1102 CircleF
3497 1022 CircleF
3497 1536 CircleF
3497 1206 CircleF
3497 1585 CircleF
3497 1016 CircleF
3497 1022 CircleF
3497 1022 CircleF
3497 1016 CircleF
3497 1016 CircleF
3497 1022 CircleF
3497 1029 CircleF
3497 1029 CircleF
3497 1016 CircleF
3497 1022 CircleF
3497 1022 CircleF
3497 1022 CircleF
3497 1029 CircleF
3497 1022 CircleF
3497 1029 CircleF
3497 1016 CircleF
3497 1016 CircleF
3497 1022 CircleF
3497 1022 CircleF
3497 3072 CircleF
3497 1016 CircleF
3497 1022 CircleF
3497 1016 CircleF
3497 1016 CircleF
3497 1029 CircleF
% End plot #7
% Begin plot #8
1.000 UL
LT7
LC7 setrgbcolor
LCb setrgbcolor
6296 4738 M
(avg) Rshow
LT7
6380 4738 M
399 0 V
800 1119 M
793 -71 V
992 86 V
991 42 V
992 -110 V
991 41 V
991 4 V
% End plot #8
stroke
LTb
LCb setrgbcolor
602 4871 N
602 588 L
6345 0 V
0 4283 V
-6345 0 V
Z stroke
1.000 UP
1.000 UL
LTb
LCb setrgbcolor
stroke
grestore
end
showpage
%%Trailer
%%DocumentFonts: Helvetica
%%Pages: 1
